0000.000 (0) Opened log file at time: Sat, 11 Nov 2017 15:33:54 +0000 on http://dax.ebtctoken.org
0000.001 (0) UpdraftPlus WordPress backup plugin (https://updraftplus.com): 1.13.12 WP: 4.8.3 PHP: 7.0.22-0ubuntu0.16.04.1 (apache2handler, Linux 245125 2.6.32-042stab120.20 #1 SMP Fri Mar 10 16:52:50 MSK 2017 x86_64) MySQL: 5.7.20 WPLANG: en_US Server: Apache/2.4.18 (Ubuntu) safe_mode: 0 max_execution_time: 900 memory_limit: 256M (used: 4.6M | 2M) multisite: N openssl: OpenSSL 1.0.2g  1 Mar 2016 mcrypt: N LANG: C ZipArchive::addFile: N
0000.002 (0) Free space on disk containing Updraft's temporary directory: 151946.4 MB
0000.046 (0) Tasks: Backup files: 1 (schedule: unset) Backup DB: 1 (schedule: unset)
0000.050 (0) Requesting semaphore lock (fd) (apparently not via scheduler)
0000.106 (0) Set semaphore last lock (fd) time to 2017-11-11 15:33:55
0000.107 (0) Semaphore lock (fd) complete
0000.111 (0) Backup run: resumption=0, nonce=1d411bac6c8e, begun at=1510414434 (1s ago), job type=backup
0000.113 (0) Scheduling a resumption (1) after 300 seconds (1510414735) in case this run gets aborted
0000.183 (0) OpenVZ; reported memory: 2048 MB
0000.184 (0) Checking if we have a zip executable available
0000.186 (0) Zip engine: ZipArchive is not available or is disabled (will use PclZip if needed)
0000.187 (0) Creation of backups of directories: beginning
0000.191 (0) Beginning creation of dump of plugins (split every: 400 MB)
0000.440 (0) Total entities for the zip file: 285 directories, 1805 files (0 skipped as non-modified), 28.8 MB
0000.442 (0) Only one archive required (UpdraftPlus_PclZip) - will attempt to do in single operation (data: 29522.3 KB, split: 409600 KB)
0000.500 (0) Zip: backup_2017-11-11-1633_eBitcoin_1d411bac6c8e-plugins.zip.tmp: 100 files added (on-disk size: 0 KB)
0000.512 (0) Zip: backup_2017-11-11-1633_eBitcoin_1d411bac6c8e-plugins.zip.tmp: 200 files added (on-disk size: 0 KB)
0000.554 (0) Zip: backup_2017-11-11-1633_eBitcoin_1d411bac6c8e-plugins.zip.tmp: 300 files added (on-disk size: 0 KB)
0000.583 (0) Zip: backup_2017-11-11-1633_eBitcoin_1d411bac6c8e-plugins.zip.tmp: 400 files added (on-disk size: 0 KB)
0000.604 (0) Zip: backup_2017-11-11-1633_eBitcoin_1d411bac6c8e-plugins.zip.tmp: 500 files added (on-disk size: 0 KB)
0000.621 (0) Zip: backup_2017-11-11-1633_eBitcoin_1d411bac6c8e-plugins.zip.tmp: 600 files added (on-disk size: 0 KB)
0000.626 (0) Zip: backup_2017-11-11-1633_eBitcoin_1d411bac6c8e-plugins.zip.tmp: 700 files added (on-disk size: 0 KB)
0000.631 (0) Zip: backup_2017-11-11-1633_eBitcoin_1d411bac6c8e-plugins.zip.tmp: 800 files added (on-disk size: 0 KB)
0000.638 (0) Zip: backup_2017-11-11-1633_eBitcoin_1d411bac6c8e-plugins.zip.tmp: 900 files added (on-disk size: 0 KB)
0000.644 (0) Zip: backup_2017-11-11-1633_eBitcoin_1d411bac6c8e-plugins.zip.tmp: 1000 files added (on-disk size: 0 KB)
0000.651 (0) Zip: backup_2017-11-11-1633_eBitcoin_1d411bac6c8e-plugins.zip.tmp: 1100 files added (on-disk size: 0 KB)
0000.662 (0) Zip: backup_2017-11-11-1633_eBitcoin_1d411bac6c8e-plugins.zip.tmp: 1200 files added (on-disk size: 0 KB)
0000.666 (0) Zip: backup_2017-11-11-1633_eBitcoin_1d411bac6c8e-plugins.zip.tmp: 1300 files added (on-disk size: 0 KB)
0000.671 (0) Zip: backup_2017-11-11-1633_eBitcoin_1d411bac6c8e-plugins.zip.tmp: 1400 files added (on-disk size: 0 KB)
0000.677 (0) Zip: backup_2017-11-11-1633_eBitcoin_1d411bac6c8e-plugins.zip.tmp: 1500 files added (on-disk size: 0 KB)
0000.682 (0) Zip: backup_2017-11-11-1633_eBitcoin_1d411bac6c8e-plugins.zip.tmp: 1600 files added (on-disk size: 0 KB)
0000.688 (0) Zip: backup_2017-11-11-1633_eBitcoin_1d411bac6c8e-plugins.zip.tmp: 1700 files added (on-disk size: 0 KB)
0000.694 (0) Zip: backup_2017-11-11-1633_eBitcoin_1d411bac6c8e-plugins.zip.tmp: 1800 files added (on-disk size: 0 KB)
0013.977 (0) Created plugins zip (0) - 9255.3 KB in 13.8 s (671.5 KB/s) (sha1: 7db6f9095fec0d92cb780d2d694360287bbbebb2, sha256: 12f63c689ef2a4f17da15f7679b7f1fa2e90ea33d349e100d7789af430fc3cdf)
0013.979 (0) Beginning creation of dump of themes (split every: 400 MB)
0014.016 (0) Total entities for the zip file: 118 directories, 691 files (0 skipped as non-modified), 31.7 MB
0014.017 (0) Only one archive required (UpdraftPlus_PclZip) - will attempt to do in single operation (data: 32462.5 KB, split: 409600 KB)
0014.025 (0) Zip: backup_2017-11-11-1633_eBitcoin_1d411bac6c8e-themes.zip.tmp: 100 files added (on-disk size: 0 KB)
0014.032 (0) Zip: backup_2017-11-11-1633_eBitcoin_1d411bac6c8e-themes.zip.tmp: 200 files added (on-disk size: 0 KB)
0014.039 (0) Zip: backup_2017-11-11-1633_eBitcoin_1d411bac6c8e-themes.zip.tmp: 300 files added (on-disk size: 0 KB)
0014.046 (0) Zip: backup_2017-11-11-1633_eBitcoin_1d411bac6c8e-themes.zip.tmp: 400 files added (on-disk size: 0 KB)
0014.053 (0) Zip: backup_2017-11-11-1633_eBitcoin_1d411bac6c8e-themes.zip.tmp: 500 files added (on-disk size: 0 KB)
0014.060 (0) Zip: backup_2017-11-11-1633_eBitcoin_1d411bac6c8e-themes.zip.tmp: 600 files added (on-disk size: 0 KB)
0023.465 (0) Created themes zip (0) - 8870.8 KB in 9.5 s (935.3 KB/s) (sha1: 257e8105e436812d84348e307e64026bd90ae312, sha256: 2529d0fc1a73b2a00bc0aa311f68d2f3e945b2799da9974c074df2d704905468)
0023.468 (0) Exclusion option setting (uploads): backup*,*backups,backwpup*,wp-clone,snapshots
0023.469 (0) Looking for candidates to back up in: /var/www/dax.ebtctoken.org/wp-content/uploads
0023.470 (0) finding files: et_temp: adding to list (1)
0023.471 (0) finding files: 2017: adding to list (2)
0023.472 (0) Beginning creation of dump of uploads (split every: 400 MB)
0023.502 (0) Total entities for the zip file: 5 directories, 144 files (0 skipped as non-modified), 8.9 MB
0023.504 (0) Only one archive required (UpdraftPlus_PclZip) - will attempt to do in single operation (data: 9137.7 KB, split: 409600 KB)
0023.507 (0) Zip: backup_2017-11-11-1633_eBitcoin_1d411bac6c8e-uploads.zip.tmp: 100 files added (on-disk size: 0 KB)
0024.874 (0) Created uploads zip (0) - 8501.8 KB in 1.4 s (6071.7 KB/s) (sha1: 6bd708d4cc0d4a5ca0af6e9262ebd6c0711cfb62, sha256: 85a7d4810ed87f1f93b08c96de0ba467614c0a734ce37f9be258bea07dd28032)
0024.878 (0) Beginning backup of other directories found in the content directory (index: 0)
0024.879 (0) Exclusion option setting (others): upgrade,cache,updraft,backup*,*backups,mysql.sql,debug.log
0024.881 (0) Looking for candidates to back up in: /var/www/dax.ebtctoken.org/wp-content
0024.882 (0) finding files: cache: skipping: excluded by options
0024.885 (0) finding files: languages: adding to list (1)
0024.886 (0) finding files: updraft: skipping: this is the updraft directory
0024.887 (0) finding files: log: adding to list (2)
0024.888 (0) finding files: themes: skipping: this is the themes directory
0024.888 (0) finding files: aiowps_backups: skipping: excluded by options (glob)
0024.889 (0) finding files: uploads: skipping: this is the uploads directory
0024.890 (0) finding files: index.php: adding to list (3)
0024.891 (0) finding files: plugins: skipping: this is the plugins directory
0024.893 (0) finding files: blogs.dir: adding to list (4)
0024.893 (0) finding files: upgrade: skipping: excluded by options
0024.904 (0) Total entities for the zip file: 5 directories, 142 files (0 skipped as non-modified), 22.4 MB
0024.905 (0) Only one archive required (UpdraftPlus_PclZip) - will attempt to do in single operation (data: 22946.6 KB, split: 409600 KB)
0024.913 (0) Zip: backup_2017-11-11-1633_eBitcoin_1d411bac6c8e-others.zip.tmp: 100 files added (on-disk size: 0 KB)
0028.764 (0) Created others zip (0) - 6354.4 KB in 3.9 s (1642.2 KB/s) (sha1: 08e3f839c6d8b3e93493644fb74c9387e923feed, sha256: 453f3a8d644c809eb54d7045264f722212b2053c2c626babe969e37528e6a715)
0028.770 (0) Saving backup status to database (elements: 8)
0028.772 (0) Beginning creation of database dump (WordPress DB)
0028.775 (0) Testing: /usr/bin/mysqldump
0029.010 (0) Output: /*!40103 SET @OLD_TIME_ZONE=@@TIME_ZONE */;\n/*!40103 SET TIME_ZONE='+00:00' */;\n/*!40014 SET @OLD_UNIQUE_CHECKS=@@UNIQUE_CHECKS, UNIQUE_CHECKS=0 */;\n/*!40014 SET @OLD_FOREIGN_KEY_CHECKS=@@FOREIGN_KEY_CHECKS, FOREIGN_KEY_CHECKS=0 */;\n/*!40101 SET @OLD_SQL_MODE=@@SQL_MODE, SQL_MODE='NO_AUTO_VALUE_ON_ZERO' */;\n/*!40111 SET @OLD_SQL_NOTES=@@SQL_NOTES, SQL_NOTES=0 */;\nDROP TABLE IF EXISTS `wp_options`;\n/*!40101 SET @saved_cs_client     = @@character_set_client */;\n/*!40101 SET character_set_client = utf8 */;\nCRE (truncated - 1186 bytes total)
0029.012 (0) Working binary mysqldump found: /usr/bin/mysqldump
0029.016 (0) Table wp_options: Total expected rows (approximate): 241
0029.061 (0) Table wp_options: Total rows added: 237 in 0.04 seconds
0029.062 (0) Table wp_options: finishing file (backup_2017-11-11-1633_eBitcoin_1d411bac6c8e-db-table-wp_options.table.gz - 130.1 KB)
0029.065 (0) Table wp_users: Total expected rows (approximate): 2
0029.067 (0) Table wp_users: Total rows added: 2 in 0.00 seconds
0029.068 (0) Table wp_users: finishing file (backup_2017-11-11-1633_eBitcoin_1d411bac6c8e-db-table-wp_users.table.gz - 0.6 KB)
0029.071 (0) Table wp_usermeta: Total expected rows (approximate): 51
0029.073 (0) Table wp_usermeta: Total rows added: 51 in 0.00 seconds
0029.074 (0) Table wp_usermeta: finishing file (backup_2017-11-11-1633_eBitcoin_1d411bac6c8e-db-table-wp_usermeta.table.gz - 2.4 KB)
0029.079 (0) Table wp_commentmeta: Total expected rows (approximate): 0
0029.081 (0) Table wp_commentmeta: Total rows added: 0 in 0.00 seconds
0029.082 (0) Table wp_commentmeta: finishing file (backup_2017-11-11-1633_eBitcoin_1d411bac6c8e-db-table-wp_commentmeta.table.gz - 0.4 KB)
0029.086 (0) Table wp_comments: Total expected rows (approximate): 0
0029.088 (0) Table wp_comments: Total rows added: 0 in 0.00 seconds
0029.089 (0) Table wp_comments: finishing file (backup_2017-11-11-1633_eBitcoin_1d411bac6c8e-db-table-wp_comments.table.gz - 0.5 KB)
0029.091 (0) Table wp_links: Total expected rows (approximate): 7
0029.094 (0) Table wp_links: Total rows added: 7 in 0.00 seconds
0029.094 (0) Table wp_links: finishing file (backup_2017-11-11-1633_eBitcoin_1d411bac6c8e-db-table-wp_links.table.gz - 0.6 KB)
0029.097 (0) Table wp_postmeta: Total expected rows (approximate): 429
0029.104 (0) Table wp_postmeta: Total rows added: 429 in 0.01 seconds
0029.106 (0) Table wp_postmeta: finishing file (backup_2017-11-11-1633_eBitcoin_1d411bac6c8e-db-table-wp_postmeta.table.gz - 7.1 KB)
0029.111 (0) Table wp_posts: Total expected rows (approximate): 490
0029.371 (0) Table wp_posts: Total rows added: 490 in 0.26 seconds
0029.374 (0) Table wp_posts: finishing file (backup_2017-11-11-1633_eBitcoin_1d411bac6c8e-db-table-wp_posts.table.gz - 707.5 KB)
0029.379 (0) Table wp_term_relationships: Total expected rows (approximate): 54
0029.383 (0) Table wp_term_relationships: Total rows added: 54 in 0.00 seconds
0029.384 (0) Table wp_term_relationships: finishing file (backup_2017-11-11-1633_eBitcoin_1d411bac6c8e-db-table-wp_term_relationships.table.gz - 0.5 KB)
0029.388 (0) Table wp_term_taxonomy: Total expected rows (approximate): 45
0029.390 (0) Table wp_term_taxonomy: Total rows added: 45 in 0.00 seconds
0029.391 (0) Table wp_term_taxonomy: finishing file (backup_2017-11-11-1633_eBitcoin_1d411bac6c8e-db-table-wp_term_taxonomy.table.gz - 1 KB)
0029.394 (0) Table wp_termmeta: Total expected rows (approximate): 0
0029.395 (0) Table wp_termmeta: Total rows added: 0 in 0.00 seconds
0029.396 (0) Table wp_termmeta: finishing file (backup_2017-11-11-1633_eBitcoin_1d411bac6c8e-db-table-wp_termmeta.table.gz - 0.4 KB)
0029.399 (0) Table wp_terms: Total expected rows (approximate): 45
0029.401 (0) Table wp_terms: Total rows added: 45 in 0.00 seconds
0029.401 (0) Table wp_terms: finishing file (backup_2017-11-11-1633_eBitcoin_1d411bac6c8e-db-table-wp_terms.table.gz - 0.9 KB)
0029.404 (0) Table wp_aiowps_events: Total expected rows (approximate): 0
0029.405 (0) Table wp_aiowps_events: Total rows added: 0 in 0.00 seconds
0029.406 (0) Table wp_aiowps_events: finishing file (backup_2017-11-11-1633_eBitcoin_1d411bac6c8e-db-table-wp_aiowps_events.table.gz - 0.4 KB)
0029.409 (0) Table wp_aiowps_failed_logins: Total expected rows (approximate): 4
0029.410 (0) Table wp_aiowps_failed_logins: Total rows added: 4 in 0.00 seconds
0029.412 (0) Table wp_aiowps_failed_logins: finishing file (backup_2017-11-11-1633_eBitcoin_1d411bac6c8e-db-table-wp_aiowps_failed_logins.table.gz - 0.5 KB)
0029.416 (0) Table wp_aiowps_global_meta: Total expected rows (approximate): 0
0029.418 (0) Table wp_aiowps_global_meta: Total rows added: 0 in 0.00 seconds
0029.419 (0) Table wp_aiowps_global_meta: finishing file (backup_2017-11-11-1633_eBitcoin_1d411bac6c8e-db-table-wp_aiowps_global_meta.table.gz - 0.4 KB)
0029.421 (0) Table wp_aiowps_login_activity: Total expected rows (approximate): 28
0029.423 (0) Table wp_aiowps_login_activity: Total rows added: 28 in 0.00 seconds
0029.424 (0) Table wp_aiowps_login_activity: finishing file (backup_2017-11-11-1633_eBitcoin_1d411bac6c8e-db-table-wp_aiowps_login_activity.table.gz - 0.8 KB)
0029.427 (0) Table wp_aiowps_login_lockdown: Total expected rows (approximate): 0
0029.428 (0) Table wp_aiowps_login_lockdown: Total rows added: 0 in 0.00 seconds
0029.429 (0) Table wp_aiowps_login_lockdown: finishing file (backup_2017-11-11-1633_eBitcoin_1d411bac6c8e-db-table-wp_aiowps_login_lockdown.table.gz - 0.4 KB)
0029.432 (0) Table wp_aiowps_permanent_block: Total expected rows (approximate): 0
0029.433 (0) Table wp_aiowps_permanent_block: Total rows added: 0 in 0.00 seconds
0029.434 (0) Table wp_aiowps_permanent_block: finishing file (backup_2017-11-11-1633_eBitcoin_1d411bac6c8e-db-table-wp_aiowps_permanent_block.table.gz - 0.4 KB)
0029.438 (0) Table wp_duplicator_packages: Total expected rows (approximate): 0
0029.440 (0) Table wp_duplicator_packages: Total rows added: 0 in 0.00 seconds
0029.441 (0) Table wp_duplicator_packages: finishing file (backup_2017-11-11-1633_eBitcoin_1d411bac6c8e-db-table-wp_duplicator_packages.table.gz - 0.4 KB)
0029.443 (0) backup_2017-11-11-1633_eBitcoin_1d411bac6c8e-db-table-wp_options.table.gz (1/19): adding to final database dump
0029.479 (0) backup_2017-11-11-1633_eBitcoin_1d411bac6c8e-db-table-wp_users.table.gz (2/19): adding to final database dump
0029.480 (0) backup_2017-11-11-1633_eBitcoin_1d411bac6c8e-db-table-wp_usermeta.table.gz (3/19): adding to final database dump
0029.481 (0) backup_2017-11-11-1633_eBitcoin_1d411bac6c8e-db-table-wp_commentmeta.table.gz (4/19): adding to final database dump
0029.482 (0) backup_2017-11-11-1633_eBitcoin_1d411bac6c8e-db-table-wp_comments.table.gz (5/19): adding to final database dump
0029.482 (0) backup_2017-11-11-1633_eBitcoin_1d411bac6c8e-db-table-wp_links.table.gz (6/19): adding to final database dump
0029.484 (0) backup_2017-11-11-1633_eBitcoin_1d411bac6c8e-db-table-wp_postmeta.table.gz (7/19): adding to final database dump
0029.488 (0) backup_2017-11-11-1633_eBitcoin_1d411bac6c8e-db-table-wp_posts.table.gz (8/19): adding to final database dump
0029.731 (0) backup_2017-11-11-1633_eBitcoin_1d411bac6c8e-db-table-wp_term_relationships.table.gz (9/19): adding to final database dump
0029.732 (0) backup_2017-11-11-1633_eBitcoin_1d411bac6c8e-db-table-wp_term_taxonomy.table.gz (10/19): adding to final database dump
0029.733 (0) backup_2017-11-11-1633_eBitcoin_1d411bac6c8e-db-table-wp_termmeta.table.gz (11/19): adding to final database dump
0029.734 (0) backup_2017-11-11-1633_eBitcoin_1d411bac6c8e-db-table-wp_terms.table.gz (12/19): adding to final database dump
0029.735 (0) backup_2017-11-11-1633_eBitcoin_1d411bac6c8e-db-table-wp_aiowps_events.table.gz (13/19): adding to final database dump
0029.735 (0) backup_2017-11-11-1633_eBitcoin_1d411bac6c8e-db-table-wp_aiowps_failed_logins.table.gz (14/19): adding to final database dump
0029.736 (0) backup_2017-11-11-1633_eBitcoin_1d411bac6c8e-db-table-wp_aiowps_global_meta.table.gz (15/19): adding to final database dump
0029.737 (0) backup_2017-11-11-1633_eBitcoin_1d411bac6c8e-db-table-wp_aiowps_login_activity.table.gz (16/19): adding to final database dump
0029.738 (0) backup_2017-11-11-1633_eBitcoin_1d411bac6c8e-db-table-wp_aiowps_login_lockdown.table.gz (17/19): adding to final database dump
0029.739 (0) backup_2017-11-11-1633_eBitcoin_1d411bac6c8e-db-table-wp_aiowps_permanent_block.table.gz (18/19): adding to final database dump
0029.739 (0) backup_2017-11-11-1633_eBitcoin_1d411bac6c8e-db-table-wp_duplicator_packages.table.gz (19/19): adding to final database dump
0029.740 (0) backup_2017-11-11-1633_eBitcoin_1d411bac6c8e-db.gz: finished writing out complete database file (848 KB)
0029.764 (0) Total database tables backed up: 19 (backup_2017-11-11-1633_eBitcoin_1d411bac6c8e-db.gz, size: 871542, sha256)
0029.769 (0) backup_2017-11-11-1633_eBitcoin_1d411bac6c8e-plugins.zip: plugins: This file has not yet been successfully uploaded: will queue
0029.770 (0) backup_2017-11-11-1633_eBitcoin_1d411bac6c8e-themes.zip: themes: This file has not yet been successfully uploaded: will queue
0029.771 (0) backup_2017-11-11-1633_eBitcoin_1d411bac6c8e-uploads.zip: uploads: This file has not yet been successfully uploaded: will queue
0029.772 (0) backup_2017-11-11-1633_eBitcoin_1d411bac6c8e-others.zip: others: This file has not yet been successfully uploaded: will queue
0029.773 (0) backup_2017-11-11-1633_eBitcoin_1d411bac6c8e-db.gz: db: This file has not yet been successfully uploaded: will queue
0029.773 (0) Saving backup history. Total backup size: 33 MB
0029.775 (0) Requesting upload of the files that have not yet been successfully uploaded (5)
0029.777 (0) Cloud backup selection (1/1): none (last)
0029.778 (0) No remote despatch: user chose no remote backup service
0029.779 (0) Recording as successfully uploaded: backup_2017-11-11-1633_eBitcoin_1d411bac6c8e-plugins.zip (4348593cff426b78b2f55b4cd714c29b)
0029.783 (0) Recording as successfully uploaded: backup_2017-11-11-1633_eBitcoin_1d411bac6c8e-themes.zip (4ad4b368ea46862590091e47ca8d2f41)
0029.786 (0) Recording as successfully uploaded: backup_2017-11-11-1633_eBitcoin_1d411bac6c8e-uploads.zip (ba6b8d78419eb25f22f66a5384b205b6)
0029.788 (0) Recording as successfully uploaded: backup_2017-11-11-1633_eBitcoin_1d411bac6c8e-others.zip (d592097c84845862ee6807211b51b006)
0029.791 (0) Recording as successfully uploaded: backup_2017-11-11-1633_eBitcoin_1d411bac6c8e-db.gz (9d78e5057417a69f9471865a8e3d7dd3)
0029.795 (0) Retain: beginning examination of existing backup sets; user setting: retain_files=2, retain_db=2
0029.797 (0) Number of backup sets in history: 2; groups (db): 1
0029.798 (0) Examining (for databases) backup set with group_id=0, nonce=1d411bac6c8e, datestamp=1510414434 (Nov 11 2017 15:33:54)
0029.798 (0) This backup set is the backup set just made, so will not be deleted.
0029.798 (0) Examining (for databases) backup set with group_id=0, nonce=8fa55daacdea, datestamp=1510270325 (Nov 09 2017 23:32:05)
0029.798 (0) This backup set remains non-empty (f=1/d=1); will retain in history
0029.799 (0) Number of backup sets in history: 2; groups (files): 1
0029.799 (0) Examining (for files) backup set with nonce=1d411bac6c8e, datestamp=1510414434 (Nov 11 2017 15:33:54)
0029.800 (0) This backup set is the backup set just made, so will not be deleted.
0029.800 (0) This backup set is the backup set just made, so will not be deleted.
0029.800 (0) This backup set is the backup set just made, so will not be deleted.
0029.800 (0) This backup set is the backup set just made, so will not be deleted.
0029.801 (0) This backup set remains non-empty (f=1/d=1); will retain in history
0029.801 (0) Examining (for files) backup set with nonce=8fa55daacdea, datestamp=1510270325 (Nov 09 2017 23:32:05)
0029.802 (0) This backup set remains non-empty (f=1/d=1); will retain in history
0029.802 (0) Retain: saving new backup history (sets now: 2) and finishing retain operation
0029.804 (0) Resume backup (1d411bac6c8e, 0): finish run
0029.807 (0) Decremented the semaphore (fd) by 1
0029.808 (0) Semaphore (fd) unlocked
0029.809 (0) There were no errors in the uploads, so the 'resume' event (1) is being unscheduled
0029.815 (0) No email will/can be sent - the user has not configured an email address.
0029.816 (0) The backup apparently succeeded and is now complete
